https://pre.education.nsw.gov.au/teaching-and-learning/professional-learning/403?SQ_DESIGN_NAME=json&amp;SQ_PAINT_LAYOUT_NAME=json
https://pre.education.nsw.gov.au/teaching-and-learning/disability-learning-and-support/home?SQ_DESIGN_NAME=json&amp;SQ_PAINT_LAYOUT_NAME=json
https://pre.education.nsw.gov.au/teaching-and-learning/aec/home?SQ_DESIGN_NAME=json&amp;SQ_PAINT_LAYOUT_NAME=json
https://pre.education.nsw.gov.au/teaching-and-learning/aec/aboriginal-education-consultative-group-partnership-agreement?SQ_DESIGN_NAME=json&amp;SQ_PAINT_LAYOUT_NAME=json
https://pre.education.nsw.gov.au/teaching-and-learning/curriculum/404?SQ_DESIGN_NAME=json&amp;SQ_PAINT_LAYOUT_NAME=json
https://pre.education.nsw.gov.au/teaching-and-learning/school-excellence-and-accountability/home?SQ_DESIGN_NAME=json&amp;SQ_PAINT_LAYOUT_NAME=json
https://pre.education.nsw.gov.au/teaching-and-learning/professional-learning/quality-teaching-rounds?SQ_DESIGN_NAME=json&amp;SQ_PAINT_LAYOUT_NAME=json
https://pre.education.nsw.gov.au/teaching-and-learning/aec/aboriginal-education-in-nsw-public-schools?SQ_DESIGN_NAME=json&amp;SQ_PAINT_LAYOUT_NAME=json
https://pre.education.nsw.gov.au/teaching-and-learning/home?SQ_DESIGN_NAME=json&amp;SQ_PAINT_LAYOUT_NAME=json
https://pre.education.nsw.gov.au/teaching-and-learning/school-excellence-and-accountability/contact-us?SQ_DESIGN_NAME=json&amp;SQ_PAINT_LAYOUT_NAME=json
https://pre.education.nsw.gov.au/curriculum/compliance?SQ_DESIGN_NAME=json&amp;SQ_PAINT_LAYOUT_NAME=json
https://pre.education.nsw.gov.au/teaching-and-learning/curriculum/search?SQ_DESIGN_NAME=json&amp;SQ_PAINT_LAYOUT_NAME=json
https://pre.education.nsw.gov.au/teaching-and-learning/professional-learning/leadership?SQ_DESIGN_NAME=json&amp;SQ_PAINT_LAYOUT_NAME=json
https://pre.education.nsw.gov.au/teaching-and-learning/aec/film-pond?SQ_DESIGN_NAME=json&amp;SQ_PAINT_LAYOUT_NAME=json
https://pre.education.nsw.gov.au/teaching-and-learning/disability-learning-and-support/resources?SQ_DESIGN_NAME=json&amp;SQ_PAINT_LAYOUT_NAME=json
https://pre.education.nsw.gov.au/teaching-and-learning/disability-learning-and-support/leaving-school?SQ_DESIGN_NAME=json&amp;SQ_PAINT_LAYOUT_NAME=json
https://pre.education.nsw.gov.au/teaching-and-learning/student-assessment/404?SQ_DESIGN_NAME=json&amp;SQ_PAINT_LAYOUT_NAME=json
https://pre.education.nsw.gov.au/teaching-and-learning/professional-learning/404?SQ_DESIGN_NAME=json&amp;SQ_PAINT_LAYOUT_NAME=json
https://pre.education.nsw.gov.au/teaching-and-learning/school-excellence-and-accountability/self-assessment?SQ_DESIGN_NAME=json&amp;SQ_PAINT_LAYOUT_NAME=json
https://pre.education.nsw.gov.au/teaching-and-learning/403?SQ_DESIGN_NAME=json&amp;SQ_PAINT_LAYOUT_NAME=json
https://pre.education.nsw.gov.au/teaching-and-learning/disability-learning-and-support/contact-us?SQ_DESIGN_NAME=json&amp;SQ_PAINT_LAYOUT_NAME=json
https://pre.education.nsw.gov.au/teaching-and-learning/disability-learning-and-support/secondary?SQ_DESIGN_NAME=json&amp;SQ_PAINT_LAYOUT_NAME=json
https://pre.education.nsw.gov.au/teaching-and-learning/aec/aboriginal-education-support-teams?SQ_DESIGN_NAME=json&amp;SQ_PAINT_LAYOUT_NAME=json
https://pre.education.nsw.gov.au/teaching-and-learning/404?SQ_DESIGN_NAME=json&amp;SQ_PAINT_LAYOUT_NAME=json
https://pre.education.nsw.gov.au/teaching-and-learning/aec/search?SQ_DESIGN_NAME=json&amp;SQ_PAINT_LAYOUT_NAME=json
https://pre.education.nsw.gov.au/teaching-and-learning/disability-learning-and-support/search?SQ_DESIGN_NAME=json&amp;SQ_PAINT_LAYOUT_NAME=json
https://pre.education.nsw.gov.au/teaching-and-learning/disability-learning-and-support/personalised-support-for-learning?SQ_DESIGN_NAME=json&amp;SQ_PAINT_LAYOUT_NAME=json
https://pre.education.nsw.gov.au/teaching-and-learning/professional-learning/teacher-quality-and-accreditation?SQ_DESIGN_NAME=json&amp;SQ_PAINT_LAYOUT_NAME=json
https://pre.education.nsw.gov.au/teaching-and-learning/professional-learning/nsw-public-school-leadership-and-management-credential?SQ_DESIGN_NAME=json&amp;SQ_PAINT_LAYOUT_NAME=json
https://pre.education.nsw.gov.au/teaching-and-learning/disability-learning-and-support/primary?SQ_DESIGN_NAME=json&amp;SQ_PAINT_LAYOUT_NAME=json
https://pre.education.nsw.gov.au/teaching-and-learning/school-excellence-and-accountability/school-planning?SQ_DESIGN_NAME=json&amp;SQ_PAINT_LAYOUT_NAME=json
https://pre.education.nsw.gov.au/teaching-and-learning/aec/events?SQ_DESIGN_NAME=json&amp;SQ_PAINT_LAYOUT_NAME=json
https://pre.education.nsw.gov.au/curriculum/literacy-and-numeracy?SQ_DESIGN_NAME=json&amp;SQ_PAINT_LAYOUT_NAME=json
https://pre.education.nsw.gov.au/teaching-and-learning/professional-learning/home?SQ_DESIGN_NAME=json&amp;SQ_PAINT_LAYOUT_NAME=json
https://pre.education.nsw.gov.au/teaching-and-learning/aec/news?SQ_DESIGN_NAME=json&amp;SQ_PAINT_LAYOUT_NAME=json
https://pre.education.nsw.gov.au/teaching-and-learning/school-excellence-and-accountability/school-excellence?SQ_DESIGN_NAME=json&amp;SQ_PAINT_LAYOUT_NAME=json
https://pre.education.nsw.gov.au/teaching-and-learning/student-assessment/403?SQ_DESIGN_NAME=json&amp;SQ_PAINT_LAYOUT_NAME=json
https://pre.education.nsw.gov.au/teaching-and-learning/disability-learning-and-support/early-childhood?SQ_DESIGN_NAME=json&amp;SQ_PAINT_LAYOUT_NAME=json
https://pre.education.nsw.gov.au/teaching-and-learning/school-excellence-and-accountability/annual-reporting?SQ_DESIGN_NAME=json&amp;SQ_PAINT_LAYOUT_NAME=json
https://pre.education.nsw.gov.au/teaching-and-learning/professional-learning/school-administrative-support-sas?SQ_DESIGN_NAME=json&amp;SQ_PAINT_LAYOUT_NAME=json
https://pre.education.nsw.gov.au/teaching-and-learning/disability-learning-and-support/404?SQ_DESIGN_NAME=json&amp;SQ_PAINT_LAYOUT_NAME=json
https://pre.education.nsw.gov.au/teaching-and-learning/search?SQ_DESIGN_NAME=json&amp;SQ_PAINT_LAYOUT_NAME=json
https://pre.education.nsw.gov.au/teaching-and-learning/curriculum/rural-and-distance-education?SQ_DESIGN_NAME=json&amp;SQ_PAINT_LAYOUT_NAME=json
https://pre.education.nsw.gov.au/teaching-and-learning/aec/language-culture-and-communities?SQ_DESIGN_NAME=json&amp;SQ_PAINT_LAYOUT_NAME=json
https://pre.education.nsw.gov.au/teaching-and-learning/curriculum/403?SQ_DESIGN_NAME=json&amp;SQ_PAINT_LAYOUT_NAME=json
https://pre.education.nsw.gov.au/teaching-and-learning/disability-learning-and-support/403?SQ_DESIGN_NAME=json&amp;SQ_PAINT_LAYOUT_NAME=json
https://pre.education.nsw.gov.au/teaching-and-learning/curriculum/home?SQ_DESIGN_NAME=json&amp;SQ_PAINT_LAYOUT_NAME=json
https://pre.education.nsw.gov.au/teaching-and-learning/aec/connected-communities?SQ_DESIGN_NAME=json&amp;SQ_PAINT_LAYOUT_NAME=json
https://pre.education.nsw.gov.au/teaching-and-learning/disability-learning-and-support/programs-and-services?SQ_DESIGN_NAME=json&amp;SQ_PAINT_LAYOUT_NAME=json
https://pre.education.nsw.gov.au/teaching-and-learning/aec/policy-strategy-and-business-systems?SQ_DESIGN_NAME=json&amp;SQ_PAINT_LAYOUT_NAME=json
https://pre.education.nsw.gov.au/curriculum/multicultural-education?SQ_DESIGN_NAME=json&amp;SQ_PAINT_LAYOUT_NAME=json
https://pre.education.nsw.gov.au/teaching-and-learning/student-assessment/home?SQ_DESIGN_NAME=json&amp;SQ_PAINT_LAYOUT_NAME=json
https://pre.education.nsw.gov.au/teaching-and-learning/school-excellence-and-accountability/403?SQ_DESIGN_NAME=json&amp;SQ_PAINT_LAYOUT_NAME=json
https://pre.education.nsw.gov.au/teaching-and-learning/school-excellence-and-accountability/policy-implementation-and-system-registration?SQ_DESIGN_NAME=json&amp;SQ_PAINT_LAYOUT_NAME=json
https://pre.education.nsw.gov.au/teaching-and-learning/school-excellence-and-accountability/404?SQ_DESIGN_NAME=json&amp;SQ_PAINT_LAYOUT_NAME=json
