{  
   "$schema":"http://json-schema.org/draft-06/schema#",
   "type":"object",
   "properties":{  
      "title":"Say it out loud: You\u2019re Wonderful, Too ",
      "news category":"Media releases",
      "news published date":"27 October 2017",
      "news summary":"<p>A new video about the power of positive language on student self-esteem was launched today at the NSW Anti-bullying Strategy 2018 Conference.<\/p>",
      "news thumbnail image":"/s3/buckets/edu-datamigration-poc-news/News/Images/comeplay1200x900.jpg",
      "news content":"<p class=\"caption\">Year 11 student Trinity Kitching in the You&rsquo;re Wonderful, Too video.<\/p><p>Teenagers from Nepean Creative and Performing Arts High School involved in the &lsquo;You&rsquo;re Wonderful&rsquo; video that went viral with 3.3 million views to date said the experience had been &ldquo;life-changing&rdquo;.<\/p><p>The unscripted video featured students talking about how they perceived themselves, including their insecurities, juxtaposed with other students speaking in positive terms about their gifts and talents.<\/p><p>&lsquo;You&rsquo;re Wonderful&rsquo; has attracted national and international interest and has now been followed up with <strong><a href=\"https:\/\/www.facebook.com\/NSWDepartmentofEducation\/videos\/2251198328486472\">You&rsquo;re Wonderful, Too<\/a>. <\/strong><\/p><p>Students said the success of the video had led to a greater focus on student mental health and a &ldquo;complimented-based school culture&rdquo; where giving a compliment was as uplifting as receiving one.<\/p><p>One of the students, Thomas Lenthen, said he was previously worried about what peers thought about him and he was surprised at the positive comments from other students.<\/p><p>&ldquo;It&rsquo;s really easy to point out faults in a person . . . but it&rsquo;s nicer to have the opportunity to look at talents,&rdquo; he said.<\/p><p>&ldquo;I&rsquo;ve been talking more to people and giving them the opportunity to say how they feel.&rdquo;<\/p><p>Keira Hynes said it was &ldquo;incredible to hear&rdquo; the kind words of her peers, which had helped her overcome insecurity and anxiety.<\/p><p>Harrison Brennan said his school had a strong focus on student mental health, with the impact of positive language resonating with the local community. On Mental Health Day students sent teachers emails thanking them for their support.<\/p><p>&ldquo;A lot of people are giving more attention to these topics . . . how we can create a positive and complimented-based culture,&rdquo; he said.<\/p><p>Trinity Kitching said students today spent a lot of time on social media, which made the video particularly powerful because it had reached millions of students worldwide.<\/p><p>&ldquo;Social media is infiltrating our homes and our phones,&rdquo; she said.<\/p><p>And the students&rsquo; advice to other students:<\/p><p>Emily Johns: &ldquo;Know that you&rsquo;re wonderful. It just takes one person to make a difference, in your school, in your friendship group, in the world.&rdquo;<\/p><p>Keira Hynes: &ldquo;Give out compliments more, let people know what you love about them, and when they&rsquo;re feeling down, try and bring them up.&rdquo;<\/p>",
      "news contact name":"Test",
      "news contact phone":"123141441",
      "news contact email":"null",
      "news show headline Y/N":"1",
      "news show summary Y/N":"1",
      "news show body Y/N":"1",
      "news show contact name Y/N":"1",
      "news show contact phone Y/N":"1",
      "news show contact email Y/N":"null",
      "news item linked internally":"<a href=\"https:\/\/pre.education.nsw.gov.au\/news\/media-releases2\/example-item-1\">Say it out loud: You\u2019re Wonderful, Too <\/a>",
      "news item linked through direct url":"",
      "news last updated date":"31 October 2018",
      "metadata properties":{  
         "DCTERMS title":"Say it out loud: You\u2019re Wonderful, Too  | News",
         "DCTERMS subject":"News - \r\nNSW Department of Education",
         "DCTERMS publisher":"scheme=AGLSTERMS.AglsAgent ; corporateName=NSW Department of Education: News",
         "DCTERMS contact":"NSW Department of Education: News",
         "DCTERMS format":"html\/text",
         "DCTERMS rights":"\u00a9 Copyright News",
         "DCTERMS identifier":"null",
         "DCTERMS coverage":"Australia",
         "AGLSTERMS availability":"",
         "AGLSTERMS accessibility":"W3C",
         "DCTERMS type":"HTML",
         "DCTERMS audience":"All",
         "DCTERMS contenttype":"",
         "title":"Say it out loud: You\u2019re Wonderful, Too  | News",
         "description":"Please update the page description via Settings > Template - Page > Page description",
         "keywords":"",
         "DCTERMS date created":"1 January 2015",
         "robots":"all",
         "News featured item":"no",
         "AGLSTERMS protectiveMarking":"Unclassified",
         "security public":"yes"
      }
   }
}